This is pdfTeX, Version 3.14159265-2.6-1.40.20 (TeX Live 2019/Debian) (preloaded format=pdflatex 2022.9.2)  6 SEP 2022 17:14
entering extended mode
 restricted \write18 enabled.
 %&-line parsing enabled.
**Avances_2022.tex
(./Avances_2022.tex
LaTeX2e <2020-02-02> patch level 2
L3 programming layer <2020-02-14>
(/usr/share/texlive/texmf-dist/tex/latex/base/article.cls
Document Class: article 2019/12/20 v1.4l Standard LaTeX document class
(/usr/share/texlive/texmf-dist/tex/latex/base/size12.clo
File: size12.clo 2019/12/20 v1.4l Standard LaTeX file (size option)
)
\c@part=\count167
\c@section=\count168
\c@subsection=\count169
\c@subsubsection=\count170
\c@paragraph=\count171
\c@subparagraph=\count172
\c@figure=\count173
\c@table=\count174
\abovecaptionskip=\skip47
\belowcaptionskip=\skip48
\bibindent=\dimen134
)
(/usr/share/texlive/texmf-dist/tex/latex/base/inputenc.sty
Package: inputenc 2018/08/11 v1.3c Input encoding file
\inpenc@prehook=\toks14
\inpenc@posthook=\toks15
)
(/usr/share/texlive/texmf-dist/tex/generic/babel/babel.sty
Package: babel 2020/02/14 3.40 The Babel package

(/usr/share/texlive/texmf-dist/tex/generic/babel/switch.def
File: switch.def 2020/02/14 3.40 Babel switching mechanism
)
(/usr/share/texlive/texmf-dist/tex/generic/babel-spanish/spanish.ldf
Language: spanish.ldf 2016/03/03 v5.0p Spanish support from the babel system

(/usr/share/texlive/texmf-dist/tex/generic/babel/babel.def
File: babel.def 2020/02/14 3.40 Babel common definitions
\babel@savecnt=\count175
\U@D=\dimen135

(/usr/share/texlive/texmf-dist/tex/generic/babel/txtbabel.def)
\bbl@readstream=\read2
\bbl@dirlevel=\count176
)
\es@quottoks=\toks16
\es@quotdepth=\count177
Package babel Info: Making " an active character on input line 561.
Package babel Info: Making . an active character on input line 662.
Package babel Info: Making < an active character on input line 707.
Package babel Info: Making > an active character on input line 707.
))
(/usr/share/texlive/texmf-dist/tex/latex/base/fontenc.sty
Package: fontenc 2020/02/11 v2.0o Standard LaTeX package
)
(/usr/share/texlive/texmf-dist/tex/latex/graphics/graphicx.sty
Package: graphicx 2019/11/30 v1.2a Enhanced LaTeX Graphics (DPC,SPQR)

(/usr/share/texlive/texmf-dist/tex/latex/graphics/keyval.sty
Package: keyval 2014/10/28 v1.15 key=value parser (DPC)
\KV@toks@=\toks17
)
(/usr/share/texlive/texmf-dist/tex/latex/graphics/graphics.sty
Package: graphics 2019/11/30 v1.4a Standard LaTeX Graphics (DPC,SPQR)

(/usr/share/texlive/texmf-dist/tex/latex/graphics/trig.sty
Package: trig 2016/01/03 v1.10 sin cos tan (DPC)
)
(/usr/share/texlive/texmf-dist/tex/latex/graphics-cfg/graphics.cfg
File: graphics.cfg 2016/06/04 v1.11 sample graphics configuration
)
Package graphics Info: Driver file: pdftex.def on input line 105.

(/usr/share/texlive/texmf-dist/tex/latex/graphics-def/pdftex.def
File: pdftex.def 2018/01/08 v1.0l Graphics/color driver for pdftex
))
\Gin@req@height=\dimen136
\Gin@req@width=\dimen137
)
(/usr/share/texlive/texmf-dist/tex/latex/chicago/chicago.sty
Using Chicago Manual of Style bibliography: 31 August 1992
\bibhang=\skip49
\bibindent=\dimen138
) (/usr/share/texlive/texmf-dist/tex/latex/listings/listings.sty
\lst@mode=\count178
\lst@gtempboxa=\box45
\lst@token=\toks18
\lst@length=\count179
\lst@currlwidth=\dimen139
\lst@column=\count180
\lst@pos=\count181
\lst@lostspace=\dimen140
\lst@width=\dimen141
\lst@newlines=\count182
\lst@lineno=\count183
\lst@maxwidth=\dimen142

(/usr/share/texlive/texmf-dist/tex/latex/listings/lstmisc.sty
File: lstmisc.sty 2019/09/10 1.8c (Carsten Heinz)
\c@lstnumber=\count184
\lst@skipnumbers=\count185
\lst@framebox=\box46
)
(/usr/share/texlive/texmf-dist/tex/latex/listings/listings.cfg
File: listings.cfg 2019/09/10 1.8c listings configuration
))
Package: listings 2019/09/10 1.8c (Carsten Heinz)

(/usr/share/texlive/texmf-dist/tex/latex/l3backend/l3backend-pdfmode.def
File: l3backend-pdfmode.def 2020-02-03 L3 backend support: PDF mode
\l__kernel_color_stack_int=\count186
\l__pdf_internal_box=\box47
)
(./Avances_2022.aux
LaTeX Info: Redefining \. on input line 12.
LaTeX Info: Redefining \% on input line 12.
)
\openout1 = `Avances_2022.aux'.

LaTeX Font Info:    Checking defaults for OML/cmm/m/it on input line 14.
LaTeX Font Info:    ... okay on input line 14.
LaTeX Font Info:    Checking defaults for OMS/cmsy/m/n on input line 14.
LaTeX Font Info:    ... okay on input line 14.
LaTeX Font Info:    Checking defaults for OT1/cmr/m/n on input line 14.
LaTeX Font Info:    ... okay on input line 14.
LaTeX Font Info:    Checking defaults for T1/cmr/m/n on input line 14.
LaTeX Font Info:    ... okay on input line 14.
LaTeX Font Info:    Checking defaults for TS1/cmr/m/n on input line 14.
LaTeX Font Info:    ... okay on input line 14.
LaTeX Font Info:    Checking defaults for OMX/cmex/m/n on input line 14.
LaTeX Font Info:    ... okay on input line 14.
LaTeX Font Info:    Checking defaults for U/cmr/m/n on input line 14.
LaTeX Font Info:    ... okay on input line 14.
LaTeX Info: Redefining \. on input line 14.
LaTeX Info: Redefining \% on input line 14.

(/usr/share/texlive/texmf-dist/tex/context/base/mkii/supp-pdf.mkii
[Loading MPS to PDF converter (version 2006.09.02).]
\scratchcounter=\count187
\scratchdimen=\dimen143
\scratchbox=\box48
\nofMPsegments=\count188
\nofMParguments=\count189
\everyMPshowfont=\toks19
\MPscratchCnt=\count190
\MPscratchDim=\dimen144
\MPnumerator=\count191
\makeMPintoPDFobject=\count192
\everyMPtoPDFconversion=\toks20
) (/usr/share/texlive/texmf-dist/tex/latex/epstopdf-pkg/epstopdf-base.sty
Package: epstopdf-base 2020-01-24 v2.11 Base part for package epstopdf
Package epstopdf-base Info: Redefining graphics rule for `.eps' on input line 4
85.

(/usr/share/texlive/texmf-dist/tex/latex/latexconfig/epstopdf-sys.cfg
File: epstopdf-sys.cfg 2010/07/13 v1.3 Configuration of (r)epstopdf for TeX Liv
e
))
\c@lstlisting=\count193
LaTeX Font Info:    External font `cmex10' loaded for size
(Font)              <14.4> on input line 15.
LaTeX Font Info:    External font `cmex10' loaded for size
(Font)              <7> on input line 15.

Underfull \hbox (badness 10000) in paragraph at lines 16--19

 []


Underfull \hbox (badness 10000) in paragraph at lines 27--28

 []

[1

{/var/lib/texmf/fonts/map/pdftex/updmap/pdftex.map}]
Underfull \hbox (badness 10000) in paragraph at lines 31--32

 []


Underfull \hbox (badness 10000) in paragraph at lines 33--34

 []


Underfull \hbox (badness 10000) in paragraph at lines 35--36

 []


Underfull \hbox (badness 10000) in paragraph at lines 37--38

 []

</home/marcos/Documentos/Doctorado - UTN/Imagenes/TLU.png, id=10, 510.40688pt x
 261.22594pt>
File: /home/marcos/Documentos/Doctorado - UTN/Imagenes/TLU.png Graphic file (ty
pe png)
<use /home/marcos/Documentos/Doctorado - UTN/Imagenes/TLU.png>
Package pdftex.def Info: /home/marcos/Documentos/Doctorado - UTN/Imagenes/TLU.p
ng  used on input line 42.
(pdftex.def)             Requested size: 292.5pt x 149.70947pt.

LaTeX Warning: `h' float specifier changed to `ht'.

</home/marcos/Documentos/Doctorado - UTN/Imagenes/CNN.png, id=12, 639.89063pt x
 349.305pt>
File: /home/marcos/Documentos/Doctorado - UTN/Imagenes/CNN.png Graphic file (ty
pe png)
<use /home/marcos/Documentos/Doctorado - UTN/Imagenes/CNN.png>
Package pdftex.def Info: /home/marcos/Documentos/Doctorado - UTN/Imagenes/CNN.p
ng  used on input line 50.
(pdftex.def)             Requested size: 292.5pt x 159.66956pt.
[2]
Underfull \hbox (badness 10000) in paragraph at lines 54--55

 []

[3 </home/marcos/Documentos/Doctorado - UTN/Imagenes/TLU.png> </home/marcos/Doc
umentos/Doctorado - UTN/Imagenes/CNN.png>]
Underfull \hbox (badness 10000) in paragraph at lines 56--57

 []

LaTeX Font Info:    External font `cmex10' loaded for size
(Font)              <12> on input line 63.
LaTeX Font Info:    External font `cmex10' loaded for size
(Font)              <8> on input line 63.
LaTeX Font Info:    External font `cmex10' loaded for size
(Font)              <6> on input line 63.
LaTeX Font Info:    External font `cmex10' loaded for size
(Font)              <5> on input line 63.
[4]
Underfull \hbox (badness 10000) in paragraph at lines 68--69

 []

[5]
Underfull \hbox (badness 10000) in paragraph at lines 71--72

 []


Underfull \hbox (badness 10000) in paragraph at lines 73--75

 []


Underfull \hbox (badness 10000) in paragraph at lines 76--77

 []

[6]
Overfull \hbox (4.91328pt too wide) in paragraph at lines 80--81
[]\T1/cmr/bx/n/12 Backbone\T1/cmr/m/n/12 : CSP-Dark-net53, una red que au-men-t
a la ca-pa-ci-dad de apren-
 []

</home/marcos/Documentos/Doctorado - UTN/Imagenes/Yolov4.png, id=33, 907.89188p
t x 328.97906pt>
File: /home/marcos/Documentos/Doctorado - UTN/Imagenes/Yolov4.png Graphic file 
(type png)
<use /home/marcos/Documentos/Doctorado - UTN/Imagenes/Yolov4.png>
Package pdftex.def Info: /home/marcos/Documentos/Doctorado - UTN/Imagenes/Yolov
4.png  used on input line 86.
(pdftex.def)             Requested size: 390.0pt x 141.31767pt.

Underfull \hbox (badness 10000) in paragraph at lines 90--91

 []


LaTeX Warning: Citation `.....' on page 7 undefined on input line 93.

[7 </home/marcos/Documentos/Doctorado - UTN/Imagenes/Yolov4.png>]
</home/marcos/Documentos/Doctorado - UTN/Imagenes/RPN.png, id=39, 366.61969pt x
 152.82094pt>
File: /home/marcos/Documentos/Doctorado - UTN/Imagenes/RPN.png Graphic file (ty
pe png)
<use /home/marcos/Documentos/Doctorado - UTN/Imagenes/RPN.png>
Package pdftex.def Info: /home/marcos/Documentos/Doctorado - UTN/Imagenes/RPN.p
ng  used on input line 100.
(pdftex.def)             Requested size: 390.0pt x 162.57703pt.

Underfull \hbox (badness 10000) in paragraph at lines 107--108

 []


Underfull \hbox (badness 10000) in paragraph at lines 109--110

 []

[8 </home/marcos/Documentos/Doctorado - UTN/Imagenes/RPN.png>]
Underfull \hbox (badness 10000) in paragraph at lines 111--112

 []


Underfull \hbox (badness 10000) in paragraph at lines 113--114

 []

[9]
</home/marcos/Documentos/Doctorado - UTN/Imagenes/cabra_yolo.jpg, id=47, 1927.2
pt x 1084.05pt>
File: /home/marcos/Documentos/Doctorado - UTN/Imagenes/cabra_yolo.jpg Graphic f
ile (type jpg)
<use /home/marcos/Documentos/Doctorado - UTN/Imagenes/cabra_yolo.jpg>
Package pdftex.def Info: /home/marcos/Documentos/Doctorado - UTN/Imagenes/cabra
_yolo.jpg  used on input line 117.
(pdftex.def)             Requested size: 253.49762pt x 142.58557pt.
</home/marcos/Documentos/Doctorado - UTN/Imagenes/mask_1.png, id=48, 636.12656p
t x 323.70938pt>
File: /home/marcos/Documentos/Doctorado - UTN/Imagenes/mask_1.png Graphic file 
(type png)
<use /home/marcos/Documentos/Doctorado - UTN/Imagenes/mask_1.png>
Package pdftex.def Info: /home/marcos/Documentos/Doctorado - UTN/Imagenes/mask_
1.png  used on input line 123.
(pdftex.def)             Requested size: 390.0pt x 198.46019pt.
</home/marcos/Documentos/Doctorado - UTN/Imagenes/mask_2.png, id=49, 666.23906p
t x 350.81062pt>
File: /home/marcos/Documentos/Doctorado - UTN/Imagenes/mask_2.png Graphic file 
(type png)
<use /home/marcos/Documentos/Doctorado - UTN/Imagenes/mask_2.png>
Package pdftex.def Info: /home/marcos/Documentos/Doctorado - UTN/Imagenes/mask_
2.png  used on input line 129.
(pdftex.def)             Requested size: 390.0pt x 205.35988pt.


LaTeX Warning: `h' float specifier changed to `ht'.

(./Avances_2022.bbl [10 </home/marcos/Documentos/Doctorado - UTN/Imagenes/cabra
_yolo.jpg> </home/marcos/Documentos/Doctorado - UTN/Imagenes/mask_1.png>])
[11 </home/marcos/Documentos/Doctorado - UTN/Imagenes/mask_2.png>]
(./Avances_2022.aux
LaTeX Info: Redefining \. on input line 12.
LaTeX Info: Redefining \% on input line 12.
) ) 
Here is how much of TeX's memory you used:
 3836 strings out of 481239
 54685 string characters out of 5920378
 302168 words of memory out of 5000000
 19080 multiletter control sequences out of 15000+600000
 544357 words of font info for 47 fonts, out of 8000000 for 9000
 1141 hyphenation exceptions out of 8191
 30i,8n,36p,1591b,361s stack positions out of 5000i,500n,10000p,200000b,80000s
{/usr/share/texmf/fonts/enc/dvips/cm-super/cm-super-t1.enc}</usr/share/texmf
/fonts/type1/public/cm-super/sfbx1200.pfb></usr/share/texmf/fonts/type1/public/
cm-super/sfbx1728.pfb></usr/share/texmf/fonts/type1/public/cm-super/sfrm0600.pf
b></usr/share/texmf/fonts/type1/public/cm-super/sfrm0700.pfb></usr/share/texmf/
fonts/type1/public/cm-super/sfrm0800.pfb></usr/share/texmf/fonts/type1/public/c
m-super/sfrm1000.pfb></usr/share/texmf/fonts/type1/public/cm-super/sfrm1200.pfb
></usr/share/texmf/fonts/type1/public/cm-super/sfrm1440.pfb></usr/share/texmf/f
onts/type1/public/cm-super/sfrm2074.pfb></usr/share/texmf/fonts/type1/public/cm
-super/sfti1200.pfb>
Output written on Avances_2022.pdf (11 pages, 1405507 bytes).
PDF statistics:
 95 PDF objects out of 1000 (max. 8388607)
 58 compressed objects within 1 object stream
 0 named destinations out of 1000 (max. 500000)
 36 words of extra memory for PDF output out of 10000 (max. 10000000)

